solid fluidwall
facet normal 0.000000 1.000000 0.000000
outer loop
vertex 15.270723 1.715168 0.000000
vertex -2.844340 1.715168 0.000000
vertex -2.844340 1.715168 0.243466
endloop
endfacet
facet normal 0.000000 1.000000 0.000000
outer loop
vertex 15.270723 1.715168 0.000000
vertex -2.844340 1.715168 0.243466
vertex 15.270723 1.715168 0.243466
endloop
endfacet
facet normal 0.000000 -1.000000 0.000000
outer loop
vertex -2.844340 -1.628979 0.000000
vertex 15.270723 -1.628979 0.000000
vertex 15.270723 -1.628979 0.243466
endloop
endfacet
facet normal 0.000000 -1.000000 0.000000
outer loop
vertex -2.844340 -1.628979 0.000000
vertex 15.270723 -1.628979 0.243466
vertex -2.844340 -1.628979 0.243466
endloop
endfacet
facet normal 0.000000 1.000000 0.000000
outer loop
vertex 15.270723 -1.628979 0.243466
vertex 15.270723 -1.628979 0.000000
vertex -2.844340 -1.628979 0.000000
endloop
endfacet
facet normal 0.000000 1.000000 0.000000
outer loop
vertex 15.270723 -1.628979 0.243466
vertex -2.844340 -1.628979 0.000000
vertex -2.844340 -1.628979 0.243466
endloop
endfacet
endsolid fluidwall
